{
  "title": "Portal",
  "type": "object",
  "properties": {
    "Portal Name": {
      "type": "string"
    },
    "Level": {
      "type": "integer",
      "minimum": 0,
      "maximum": 8
    },
    "Team": {
      "type": "string",
      "enum": [
        "Neutral",
        "Resistance",
        "Enlightened",
        "_MACHINA_"
      ]
    },
    "Health": {
      "type": "integer"
    },
    "Resonators": {
      "type": "array",
      "items": {
        "type": "object",
        "properties": {
          "owner": {
            "type": "string"
          },
          "level": {
            "type": "integer",
            "minimum": 1,
            "maximum": 8
          },
          "energy": {
            "type": "integer"
          }
        },
        "required": [
          "owner",
          "level",
          "energy"
        ]
      }
    },
    "AP": {
      "type": "object",
      "properties": {
        "friendlyAp": {
          "type": "integer"
        },
        "enemyAp": {
          "type": "integer"
        },
        "destroyAp": {
          "type": "integer"
        },
        "destroyResoAp": {
          "type": "integer"
        },
        "captureAp": {
          "type": "integer"
        }
      },
      "required": [
        "friendlyAp",
        "enemyAp",
        "destroyAp",
        "destroyResoAp",
        "captureAp"
      ]
    },
    "Latitude": {
      "type": "number"
    },
    "Longitude": {
      "type": "number"
    },
    "Image URL": {
      "type": "string"
    },
    "GUID": {
      "type": "string"
    },
    "Incoming Links": {
      "type": "array",
      "items": {
        "type": "object",
        "properties": {
          "GUID": {
            "type": "string"
          },
          "Latitude": {
            "type": "number"
          },
          "Longitude": {
            "type": "number"
          },
          "Portal Name": {
            "type": "string"
          }
        },
        "required": [
          "GUID",
          "Latitude",
          "Longitude",
          "Portal Name"
        ]
      }
    },
    "Outgoing Links": {
      "type": "array",
      "items": {
        "type": "object",
        "properties": {
          "GUID": {
            "type": "string"
          },
          "Latitude": {
            "type": "number"
          },
          "Longitude": {
            "type": "number"
          },
          "Portal Name": {
            "type": "string"
          }
        },
        "required": [
          "GUID",
          "Latitude",
          "Longitude",
          "Portal Name"
        ]
      }
    },
    "Fields": {
      "type": "array",
      "items": {
        "type": "string"
      }
    },
    "Scanner Link": {
      "type": "string"
    },
    "Mods": {
      "type": "array",
      "items": {
        "type": "object",
        "properties": {
          "owner": {
            "type": "string"
          },
          "name": {
            "type": "string",
            "enum": [
              "Portal Shield",
              "Aegis Shield",
              "Heat Sink",
              "Multi-hack",
              "Link Amp",
              "SoftBank Ultra Link",
              "Force Amp",
              "Turret",
              "Ito En Transmuter (+)",
              "Ito En Transmuter (-)"
            ]
          },
          "rarity": {
            "type": "string",
            "enum": [
              "COMMON",
              "RARE",
              "VERY_RARE"
            ]
          },
          "stats": {
            "type": "object",
            "additionalProperties": {
              "type": "string"
            }
          }
        },
        "required": [
          "owner",
          "name",
          "rarity",
          "stats"
        ]
      }
    },
    "Owner": {
      "type": "string"
    }
  },
  "required": [
    "Portal Name",
    "Level",
    "Team",
    "Health",
    "Resonators",
    "AP",
    "Latitude",
    "Longitude",
    "Image URL",
    "GUID",
    "Incoming Links",
    "Outgoing Links",
    "Fields",
    "Scanner Link",
    "Mods",
    "Owner"
  ]
}
