[
    {
        "name": "tag1",
        "content": "content1"
    },
    {
        "name": "tag2",
        "content": "content2"
    },
    {
        "name": "tag3",
        "content": "content3"
    },
    {
        "name": "tag4",
        "content": "content4"
    },
    {
        "name": "tag5",
        "content": "content5"
    },
    {
        "name": "tag6",
        "content": "content6"
    },
    {
        "name": "tag7",
        "content": "content7"
    },
    {
        "name": "tag8",
        "content": "content8"
    },
    {
        "name": "tag9",
        "content": "content9"
    },
    {
        "name": "tag10",
        "content": "content10"
    }
]

